112061619_lab3/fir.vcd
$date
   Wed Oct 11 11:53:36 2023
$end
$version
  2022.1
$end
$timescale
  1ps
$end
$scope module fir_tb $end
$var wire 1 ! awready $end
$var wire 1 " wready $end
$var reg 1 # awvalid $end
$var reg 12 $ awaddr [11:0] $end
$var reg 1 % wvalid $end
$var reg 32 & wdata [31:0] $end
$var wire 1 ' arready $end
$var reg 1 ( rready $end
$var reg 1 ) arvalid $end
$var reg 12 * araddr [11:0] $end
$var wire 1 + rvalid $end
$var wire 32 , rdata [31:0] $end
$var reg 1 - ss_tvalid $end
$var reg 32 . ss_tdata [31:0] $end
$var reg 1 / ss_tlast $end
$var wire 1 0 ss_tready $end
$var reg 1 1 sm_tready $end
$var wire 1 2 sm_tvalid $end
$var wire 32 3 sm_tdata [31:0] $end
$var wire 1 4 sm_tlast $end
$var reg 1 5 axis_clk $end
$var reg 1 6 axis_rst_n $end
$var wire 4 7 tap_WE [3:0] $end
$var wire 1 8 tap_EN $end
$var wire 32 9 tap_Di [31:0] $end
$var wire 12 : tap_A [11:0] $end
$var wire 32 ; tap_Do [31:0] $end
$var wire 4 < data_WE [3:0] $end
$var wire 1 = data_EN $end
$var wire 32 > data_Di [31:0] $end
$var wire 12 ? data_A [11:0] $end
$var wire 32 @ data_Do [31:0] $end
$var reg 1 A error_coef $end
$var reg 32 B data_length [31:0] $end
$var integer 32 C Din [31:0] $end
$var integer 32 D golden [31:0] $end
$var integer 32 E input_data [31:0] $end
$var integer 32 F golden_data [31:0] $end
$var integer 32 G m [31:0] $end
$var integer 32 H i [31:0] $end
$var integer 32 I k [31:0] $end
$var reg 1 J error $end
$var integer 32 K timeout [31:0] $end
$scope module fir_DUT $end
$var wire 1 ! awready $end
$var wire 1 " wready $end
$var wire 1 L awvalid $end
$var wire 12 M awaddr [11:0] $end
$var wire 1 N wvalid $end
$var wire 32 O wdata [31:0] $end
$var wire 1 ' arready $end
$var wire 1 P rready $end
$var wire 1 Q arvalid $end
$var wire 12 R araddr [11:0] $end
$var wire 1 + rvalid $end
$var reg 32 S rdata [31:0] $end
$var wire 1 T ss_tvalid $end
$var wire 32 U ss_tdata [31:0] $end
$var wire 1 V ss_tlast $end
$var wire 1 0 ss_tready $end
$var wire 1 W sm_tready $end
$var reg 1 X sm_tvalid $end
$var wire 32 3 sm_tdata [31:0] $end
$var reg 1 Y sm_tlast $end
$var wire 4 7 tap_WE [3:0] $end
$var wire 1 8 tap_EN $end
$var wire 32 9 tap_Di [31:0] $end
$var wire 12 : tap_A [11:0] $end
$var wire 32 ; tap_Do [31:0] $end
$var reg 4 Z data_WE [3:0] $end
$var wire 1 = data_EN $end
$var wire 32 > data_Di [31:0] $end
$var wire 12 ? data_A [11:0] $end
$var wire 32 @ data_Do [31:0] $end
$var wire 1 [ axis_clk $end
$var wire 1 \ axis_rst_n $end
$var wire 12 ] addr [11:0] $end
$var wire 32 ^ ap_ctrl [31:0] $end
$var wire 32 _ mul [31:0] $end
$var wire 1 ` wen $end
$var wire 1 a awen $end
$var wire 1 b ren $end
$var wire 1 c aren $end
$var reg 32 d data_length [31:0] $end
$var reg 32 e cnt [31:0] $end
$var reg 32 f temp [31:0] $end
$var reg 12 g mul_cnt [11:0] $end
$var reg 12 h i_cnt [11:0] $end
$var reg 12 i sm_cnt [11:0] $end
$var reg 12 j offset [11:0] $end
$var reg 12 k j_cnt [11:0] $end
$var reg 1 l ap_done $end
$var wire 1 m ap_start $end
$var reg 1 n ap_idle $end
$upscope $end
$scope module tap_RAM $end
$var wire 1 o CLK $end
$var wire 4 7 WE [3:0] $end
$var wire 1 8 EN $end
$var wire 32 9 Di [31:0] $end
$var wire 32 ; Do [31:0] $end
$var wire 12 : A [11:0] $end
$var reg 12 p r_A [11:0] $end
$upscope $end
$scope module data_RAM $end
$var wire 1 q CLK $end
$var wire 4 < WE [3:0] $end
$var wire 1 = EN $end
$var wire 32 > Di [31:0] $end
$var wire 32 @ Do [31:0] $end
$var wire 12 ? A [11:0] $end
$var reg 12 r r_A [11:0] $end
$upscope $end
$scope task config_write $end
$var reg 12 s addr [11:0] $end
$var reg 32 t data [31:0] $end
$upscope $end
$scope task config_read_check $end
$var reg 12 u addr [11:0] $end
$var reg 32 v exp_data [31:0] $end
$var reg 32 w mask [31:0] $end
$upscope $end
$scope task ss $end
$var reg 32 x in1 [31:0] $end
$upscope $end
$scope task sm $end
$var reg 32 y in2 [31:0] $end
$var reg 32 z pcnt [31:0] $end
$upscope $end
$upscope $end
$enddefinitions $end
#0
$dumpvars
x!
x"
x#
bx $
x%
bx &
x'
x(
x)
bx *
x+
bx ,
0-
bx .
x/
x0
11
x2
bx 3
x4
05
06
bx 7
x8
bx 9
bx :
bx ;
bx <
x=
bx >
bx ?
bx @
0A
b1001011000 B
b11111111111111111011000111100000 C
b11111111111111111011000111100001 D
b1 E
b1 F
b1001011000 G
bx H
bx I
0J
b11110100001001000000 K
xL
bx M
xN
bx O
xP
xQ
bx R
bx S
0T
bx U
xV
1W
xX
xY
bx Z
0[
0\
bx ]
b0xxx ^
bx _
x`
xa
xb
xc
bx d
bx e
bx f
bx g
bx h
bx i
bx j
bx k
xl
xm
xn
0o
bx p
0q
bx r
bx s
bx t
bx u
bx v
bx w
bx x
bx y
bx z
$end
#5000
0)
b0 *
1-
b1 .
0/
x0
02
bx 3
04
15
x8
bx :
b0 <
1=
b1 >
b0 ?
bx @
b0 H
b11110100001000111111 K
0Q
b0 R
1T
b1 U
0V
0X
0Y
b0 Z
1[
bx ]
b10x ^
bx _
0c
bx d
b0 e
bx f
b0 g
b101000 h
bx i
b0 j
b0 k
0l
1n
1o
bx p
1q
bx r
b1 x
#10000
05
0[
0o
0q
#15000
bx 3
15
16
b0x00 ?
bx @
b11110100001000111110 K
0X
b0 Z
1[
1\
bx d
b0 f
b100 g
b101000 h
bx i
b0 j
b0 k
1n
1o
bx p
1q
b0 r
b10000 s
b1001011000 t
#20000
05
0[
0o
0q
#25000
1!
1"
1#
b10000 $
1%
b1001011000 &
0'
0+
00
15
b0 7
08
bx 9
bx :
b0 ;
1=
b0 ?
bx @
b11110100001000111101 K
1L
b10000 M
1N
b1001011000 O
0X
b0 Z
1[
b10000 ]
b100 ^
1`
1a
0b
0c
bx d
b0 f
b1000 g
b101000 h
bx i
b0 j
b0 k
0m
1n
1o
bx p
1q
b0x00 r
#30000
05
0[
0o
0q
#35000
15
b0 ?
bx @
b0 I
b11110100001000111100 K
0X
b0 Z
1[
b0 _
b1001011000 d
b0 f
b11100 g
b101000 h
b0 i
b0 j
b0 k
1n
1o
bx p
1q
b0 r
b100000 s
b0 t
#40000
05
0[
0o
0q
#45000
1#
b100000 $
1%
b0 &
15
b1111 7
18
b0 9
b0 :
bx ;
b11110100001000111011 K
b100000 M
b0 O
0X
b0 Z
1[
b100000 ]
b1001011000 d
b0 f
b11100 g
b101000 h
b0 i
b0 j
b0 k
0m
1n
1o
bx p
1q
b0 r
#50000
05
0[
0o
0q
#55000
15
b0 ;
b1 I
b11110100001000111010 K
0X
b0 Z
1[
b1001011000 d
b0 f
b11100 g
b101000 h
b0 i
b0 j
b0 k
1n
1o
b0 p
1q
b0 r
b100100 s
b11111111111111111111111111110110 t
#60000
05
0[
0o
0q
#65000
1#
b100100 $
1%
b11111111111111111111111111110110 &
15
b1111 7
18
b11111111111111111111111111110110 9
b100 :
b11110100001000111001 K
b100100 M
b11111111111111111111111111110110 O
0X
b0 Z
1[
b100100 ]
b1001011000 d
b0 f
b11100 g
b101000 h
b0 i
b0 j
b0 k
0m
1n
1o
b0 p
1q
b0 r
#70000
05
0[
0o
0q
#75000
15
b11111111111111111111111111110110 ;
b10 I
b11110100001000111000 K
0X
b0 Z
1[
b1001011000 d
b0 f
b11100 g
b101000 h
b0 i
b0 j
b0 k
1n
1o
b100 p
1q
b0 r
b101000 s
b11111111111111111111111111110111 t
#80000
05
0[
0o
0q
#85000
1#
b101000 $
1%
b11111111111111111111111111110111 &
15
b1111 7
18
b11111111111111111111111111110111 9
b1000 :
b11110100001000110111 K
b101000 M
b11111111111111111111111111110111 O
0X
b0 Z
1[
b101000 ]
b1001011000 d
b0 f
b11100 g
b101000 h
b0 i
b0 j
b0 k
0m
1n
1o
b100 p
1q
b0 r
#90000
05
0[
0o
0q
#95000
15
b11111111111111111111111111110111 ;
b11 I
b11110100001000110110 K
0X
b0 Z
1[
b1001011000 d
b0 f
b11100 g
b101000 h
b0 i
b0 j
b0 k
1n
1o
b1000 p
1q
b0 r
b101100 s
b10111 t
#100000
05
0[
0o
0q
#105000
1#
b101100 $
1%
b10111 &
15
b1111 7
18
b10111 9
b1100 :
b11110100001000110101 K
b101100 M
b10111 O
0X
b0 Z
1[
b101100 ]
b1001011000 d
b0 f
b11100 g
b101000 h
b0 i
b0 j
b0 k
0m
1n
1o
b1000 p
1q
b0 r
#110000
05
0[
0o
0q
#115000
15
b10111 ;
b100 I
b11110100001000110100 K
0X
b0 Z
1[
b1001011000 d
b0 f
b11100 g
b101000 h
b0 i
b0 j
b0 k
1n
1o
b1100 p
1q
b0 r
b110000 s
b111000 t
#120000
05
0[
0o
0q
#125000
1#
b110000 $
1%
b111000 &
15
b1111 7
18
b111000 9
b10000 :
b11110100001000110011 K
b110000 M
b111000 O
0X
b0 Z
1[
b110000 ]
b1001011000 d
b0 f
b11100 g
b101000 h
b0 i
b0 j
b0 k
0m
1n
1o
b1100 p
1q
b0 r
#130000
05
0[
0o
0q
#135000
15
b111000 ;
b101 I
b11110100001000110010 K
0X
b0 Z
1[
b1001011000 d
b0 f
b11100 g
b101000 h
b0 i
b0 j
b0 k
1n
1o
b10000 p
1q
b0 r
b110100 s
b111111 t
#140000
05
0[
0o
0q
#145000
1#
b110100 $
1%
b111111 &
15
b1111 7
18
b111111 9
b10100 :
b11110100001000110001 K
b110100 M
b111111 O
0X
b0 Z
1[
b110100 ]
b1001011000 d
b0 f
b11100 g
b101000 h
b0 i
b0 j
b0 k
0m
1n
1o
b10000 p
1q
b0 r
#150000
05
0[
0o
0q
#155000
15
b111111 ;
b110 I
b11110100001000110000 K
0X
b0 Z
1[
b1001011000 d
b0 f
b11100 g
b101000 h
b0 i
b0 j
b0 k
1n
1o
b10100 p
1q
b0 r
b111000 s
b111000 t
#160000
05
0[
0o
0q
#165000
1#
b111000 $
1%
b111000 &
15
b1111 7
18
b111000 9
b11000 :
b11110100001000101111 K
b111000 M
b111000 O
0X
b0 Z
1[
b111000 ]
b1001011000 d
b0 f
b11100 g
b101000 h
b0 i
b0 j
b0 k
0m
1n
1o
b10100 p
1q
b0 r
#170000
05
0[
0o
0q
#175000
15
b111000 ;
b111 I
b11110100001000101110 K
0X
b0 Z
1[
b1001011000 d
b0 f
b11100 g
b101000 h
b0 i
b0 j
b0 k
1n
1o
b11000 p
1q
b0 r
b111100 s
b10111 t
#180000
05
0[
0o
0q
#185000
1#
b111100 $
1%
b10111 &
15
b1111 7
18
b10111 9
b11100 :
b11110100001000101101 K
b111100 M
b10111 O
0X
b0 Z
1[
b111100 ]
b1001011000 d
b0 f
b11100 g
b101000 h
b0 i
b0 j
b0 k
0m
1n
1o
b11000 p
1q
b0 r
#190000
05
0[
0o
0q
#195000
15
b10111 ;
b1000 I
b11110100001000101100 K
0X
b0 Z
1[
b1001011000 d
b0 f
b11100 g
b101000 h
b0 i
b0 j
b0 k
1n
1o
b11100 p
1q
b0 r
b1000000 s
b11111111111111111111111111110111 t
#200000
05
0[
0o
0q
#205000
1#
b1000000 $
1%
b11111111111111111111111111110111 &
15
b1111 7
18
b11111111111111111111111111110111 9
b100000 :
b11110100001000101011 K
b1000000 M
b11111111111111111111111111110111 O
0X
b0 Z
1[
b1000000 ]
b1001011000 d
b0 f
b11100 g
b101000 h
b0 i
b0 j
b0 k
0m
1n
1o
b11100 p
1q
b0 r
#210000
05
0[
0o
0q
#215000
15
b11111111111111111111111111110111 ;
b1001 I
b11110100001000101010 K
0X
b0 Z
1[
b1001011000 d
b0 f
b11100 g
b101000 h
b0 i
b0 j
b0 k
1n
1o
b100000 p
1q
b0 r
b1000100 s
b11111111111111111111111111110110 t
#220000
05
0[
0o
0q
#225000
1#
b1000100 $
1%
b11111111111111111111111111110110 &
15
b1111 7
18
b11111111111111111111111111110110 9
b100100 :
b11110100001000101001 K
b1000100 M
b11111111111111111111111111110110 O
0X
b0 Z
1[
b1000100 ]
b1001011000 d
b0 f
b11100 g
b101000 h
b0 i
b0 j
b0 k
0m
1n
1o
b100000 p
1q
b0 r
#230000
05
0[
0o
0q
#235000
15
b11111111111111111111111111110110 ;
b1010 I
b11110100001000101000 K
0X
b0 Z
1[
b1001011000 d
b0 f
b11100 g
b101000 h
b0 i
b0 j
b0 k
1n
1o
b100100 p
1q
b0 r
b1001000 s
b0 t
#240000
05
0[
0o
0q
#245000
1#
b1001000 $
1%
b0 &
15
b1111 7
18
b0 9
b101000 :
b11110100001000100111 K
b1001000 M
b0 O
0X
b0 Z
1[
b1001000 ]
b1001011000 d
b0 f
b11100 g
b101000 h
b0 i
b0 j
b0 k
0m
1n
1o
b100100 p
1q
b0 r
#250000
05
0[
0o
0q
#255000
15
b0 ;
b1011 I
b11110100001000100110 K
0X
b0 Z
1[
b1001011000 d
b0 f
b11100 g
b101000 h
b0 i
b0 j
b0 k
1n
1o
b101000 p
1q
b0 r
#260000
05
0[
0o
0q
#265000
0!
0"
0#
0%
1'
0)
1+
15
b0 7
08
b0 9
b101000 :
b0 ;
b0 I
b11110100001000100101 K
0L
0N
0X
b0 Z
1[
b1001000 ]
0`
0a
xb
0c
b1001011000 d
b0 f
b11100 g
b101000 h
b0 i
b0 j
b0 k
0m
1n
1o
b101000 p
1q
b0 r
b100000 u
b0 v
b11111111111111111111111111111111 w
#270000
05
0[
0o
0q
#275000
1(
1)
b100000 *
b0 ,
15
18
b0 :
b0 ;
b11110100001000100100 K
1P
1Q
b100000 R
b0 S
0X
b0 Z
1[
b100000 ]
1b
1c
b1001011000 d
b0 f
b11100 g
b101000 h
b0 i
b0 j
b0 k
1n
1o
b101000 p
1q
b0 r
#280000
05
0[
0o
0q
#285000
15
b0 ;
b11110100001000100011 K
0X
b0 Z
1[
b1001011000 d
b0 f
b11100 g
b101000 h
b0 i
b0 j
b0 k
1n
1o
b0 p
1q
b0 r
#290000
05
0[
0o
0q
#295000
15
b1 I
b11110100001000100010 K
0X
b0 Z
1[
b1001011000 d
b0 f
b11100 g
b101000 h
b0 i
b0 j
b0 k
1n
1o
b0 p
1q
b0 r
b100100 u
b11111111111111111111111111110110 v
b11111111111111111111111111111111 w
#300000
05
0[
0o
0q
#305000
1(
1)
b100100 *
15
18
b100 :
b11110100001000100001 K
b100100 R
b0 S
0X
b0 Z
1[
b100100 ]
b1001011000 d
b0 f
b11100 g
b101000 h
b0 i
b0 j
b0 k
1n
1o
b0 p
1q
b0 r
#310000
05
0[
0o
0q
#315000
b11111111111111111111111111110110 ,
15
b11111111111111111111111111110110 ;
b11110100001000100000 K
b11111111111111111111111111110110 S
0X
b0 Z
1[
b1001011000 d
b0 f
b11100 g
b101000 h
b0 i
b0 j
b0 k
1n
1o
b100 p
1q
b0 r
#320000
05
0[
0o
0q
#325000
15
b10 I
b11110100001000011111 K
0X
b0 Z
1[
b1001011000 d
b0 f
b11100 g
b101000 h
b0 i
b0 j
b0 k
1n
1o
b100 p
1q
b0 r
b101000 u
b11111111111111111111111111110111 v
b11111111111111111111111111111111 w
#330000
05
0[
0o
0q
#335000
1(
1)
b101000 *
15
18
b1000 :
b11110100001000011110 K
b101000 R
b11111111111111111111111111110110 S
0X
b0 Z
1[
b101000 ]
b1001011000 d
b0 f
b11100 g
b101000 h
b0 i
b0 j
b0 k
1n
1o
b100 p
1q
b0 r
#340000
05
0[
0o
0q
#345000
b11111111111111111111111111110111 ,
15
b11111111111111111111111111110111 ;
b11110100001000011101 K
b11111111111111111111111111110111 S
0X
b0 Z
1[
b1001011000 d
b0 f
b11100 g
b101000 h
b0 i
b0 j
b0 k
1n
1o
b1000 p
1q
b0 r
#350000
05
0[
0o
0q
#355000
15
b11 I
b11110100001000011100 K
0X
b0 Z
1[
b1001011000 d
b0 f
b11100 g
b101000 h
b0 i
b0 j
b0 k
1n
1o
b1000 p
1q
b0 r
b101100 u
b10111 v
b11111111111111111111111111111111 w
#360000
05
0[
0o
0q
#365000
1(
1)
b101100 *
15
18
b1100 :
b11110100001000011011 K
b101100 R
b11111111111111111111111111110111 S
0X
b0 Z
1[
b101100 ]
b1001011000 d
b0 f
b11100 g
b101000 h
b0 i
b0 j
b0 k
1n
1o
b1000 p
1q
b0 r
#370000
05
0[
0o
0q
#375000
b10111 ,
15
b10111 ;
b11110100001000011010 K
b10111 S
0X
b0 Z
1[
b1001011000 d
b0 f
b11100 g
b101000 h
b0 i
b0 j
b0 k
1n
1o
b1100 p
1q
b0 r
#380000
05
0[
0o
0q
#385000
15
b100 I
b11110100001000011001 K
0X
b0 Z
1[
b1001011000 d
b0 f
b11100 g
b101000 h
b0 i
b0 j
b0 k
1n
1o
b1100 p
1q
b0 r
b110000 u
b111000 v
b11111111111111111111111111111111 w
#390000
05
0[
0o
0q
#395000
1(
1)
b110000 *
15
18
b10000 :
b11110100001000011000 K
b110000 R
b10111 S
0X
b0 Z
1[
b110000 ]
b1001011000 d
b0 f
b11100 g
b101000 h
b0 i
b0 j
b0 k
1n
1o
b1100 p
1q
b0 r
#400000
05
0[
0o
0q
#405000
b111000 ,
15
b111000 ;
b11110100001000010111 K
b111000 S
0X
b0 Z
1[
b1001011000 d
b0 f
b11100 g
b101000 h
b0 i
b0 j
b0 k
1n
1o
b10000 p
1q
b0 r
#410000
05
0[
0o
0q
#415000
15
b101 I
b11110100001000010110 K
0X
b0 Z
1[
b1001011000 d
b0 f
b11100 g
b101000 h
b0 i
b0 j
b0 k
1n
1o
b10000 p
1q
b0 r
b110100 u
b111111 v
b11111111111111111111111111111111 w
#420000
05
0[
0o
0q
#425000
1(
1)
b110100 *
15
18
b10100 :
b11110100001000010101 K
b110100 R
b111000 S
0X
b0 Z
1[
b110100 ]
b1001011000 d
b0 f
b11100 g
b101000 h
b0 i
b0 j
b0 k
1n
1o
b10000 p
1q
b0 r
#430000
05
0[
0o
0q
#435000
b111111 ,
15
b111111 ;
b11110100001000010100 K
b111111 S
0X
b0 Z
1[
b1001011000 d
b0 f
b11100 g
b101000 h
b0 i
b0 j
b0 k
1n
1o
b10100 p
1q
b0 r
#440000
05
0[
0o
0q
#445000
15
b110 I
b11110100001000010011 K
0X
b0 Z
1[
b1001011000 d
b0 f
b11100 g
b101000 h
b0 i
b0 j
b0 k
1n
1o
b10100 p
1q
b0 r
b111000 u
b111000 v
b11111111111111111111111111111111 w
#450000
05
0[
0o
0q
#455000
1(
1)
b111000 *
15
18
b11000 :
b11110100001000010010 K
b111000 R
b111111 S
0X
b0 Z
1[
b111000 ]
b1001011000 d
b0 f
b11100 g
b101000 h
b0 i
b0 j
b0 k
1n
1o
b10100 p
1q
b0 r
#460000
05
0[
0o
0q
#465000
b111000 ,
15
b111000 ;
b11110100001000010001 K
b111000 S
0X
b0 Z
1[
b1001011000 d
b0 f
b11100 g
b101000 h
b0 i
b0 j
b0 k
1n
1o
b11000 p
1q
b0 r
#470000
05
0[
0o
0q
#475000
15
b111 I
b11110100001000010000 K
0X
b0 Z
1[
b1001011000 d
b0 f
b11100 g
b101000 h
b0 i
b0 j
b0 k
1n
1o
b11000 p
1q
b0 r
b111100 u
b10111 v
b11111111111111111111111111111111 w
#480000
05
0[
0o
0q
#485000
1(
1)
b111100 *
15
18
b11100 :
b11110100001000001111 K
b111100 R
b111000 S
0X
b0 Z
1[
b111100 ]
b1001011000 d
b0 f
b11100 g
b101000 h
b0 i
b0 j
b0 k
1n
1o
b11000 p
1q
b0 r
#490000
05
0[
0o
0q
#495000
b10111 ,
15
b10111 ;
b11110100001000001110 K
b10111 S
0X
b0 Z
1[
b1001011000 d
b0 f
b11100 g
b101000 h
b0 i
b0 j
b0 k
1n
1o
b11100 p
1q
b0 r
#500000
05
0[
0o
0q
#505000
15
b1000 I
b11110100001000001101 K
0X
b0 Z
1[
b1001011000 d
b0 f
b11100 g
b101000 h
b0 i
b0 j
b0 k
1n
1o
b11100 p
1q
b0 r
b1000000 u
b11111111111111111111111111110111 v
b11111111111111111111111111111111 w
#510000
05
0[
0o
0q
#515000
1(
1)
b1000000 *
15
18
b100000 :
b11110100001000001100 K
b1000000 R
b10111 S
0X
b0 Z
1[
b1000000 ]
b1001011000 d
b0 f
b11100 g
b101000 h
b0 i
b0 j
b0 k
1n
1o
b11100 p
1q
b0 r
#520000
05
0[
0o
0q
#525000
b11111111111111111111111111110111 ,
15
b11111111111111111111111111110111 ;
b11110100001000001011 K
b11111111111111111111111111110111 S
0X
b0 Z
1[
b1001011000 d
b0 f
b11100 g
b101000 h
b0 i
b0 j
b0 k
1n
1o
b100000 p
1q
b0 r
#530000
05
0[
0o
0q
#535000
15
b1001 I
b11110100001000001010 K
0X
b0 Z
1[
b1001011000 d
b0 f
b11100 g
b101000 h
b0 i
b0 j
b0 k
1n
1o
b100000 p
1q
b0 r
b1000100 u
b11111111111111111111111111110110 v
b11111111111111111111111111111111 w
#540000
05
0[
0o
0q
#545000
1(
1)
b1000100 *
15
18
b100100 :
b11110100001000001001 K
b1000100 R
b11111111111111111111111111110111 S
0X
b0 Z
1[
b1000100 ]
b1001011000 d
b0 f
b11100 g
b101000 h
b0 i
b0 j
b0 k
1n
1o
b100000 p
1q
b0 r
#550000
05
0[
0o
0q
#555000
b11111111111111111111111111110110 ,
15
b11111111111111111111111111110110 ;
b11110100001000001000 K
b11111111111111111111111111110110 S
0X
b0 Z
1[
b1001011000 d
b0 f
b11100 g
b101000 h
b0 i
b0 j
b0 k
1n
1o
b100100 p
1q
b0 r
#560000
05
0[
0o
0q
#565000
15
b1010 I
b11110100001000000111 K
0X
b0 Z
1[
b1001011000 d
b0 f
b11100 g
b101000 h
b0 i
b0 j
b0 k
1n
1o
b100100 p
1q
b0 r
b1001000 u
b0 v
b11111111111111111111111111111111 w
#570000
05
0[
0o
0q
#575000
1(
1)
b1001000 *
15
18
b101000 :
b11110100001000000110 K
b1001000 R
b11111111111111111111111111110110 S
0X
b0 Z
1[
b1001000 ]
b1001011000 d
b0 f
b11100 g
b101000 h
b0 i
b0 j
b0 k
1n
1o
b100100 p
1q
b0 r
#580000
05
0[
0o
0q
#585000
b0 ,
15
b0 ;
b11110100001000000101 K
b0 S
0X
b0 Z
1[
b1001011000 d
b0 f
b11100 g
b101000 h
b0 i
b0 j
b0 k
1n
1o
b101000 p
1q
b0 r
#590000
05
0[
0o
0q
#595000
0)
15
08
b101000 :
b0 ;
b1011 I
b11110100001000000100 K
0Q
0X
b0 Z
1[
b1001000 ]
0c
b1001011000 d
b0 f
b11100 g
b101000 h
b0 i
b0 j
b0 k
1n
1o
b101000 p
1q
b0 r
#600000
05
0[
0o
0q
#605000
15
b11110100001000000011 K
0X
b0 Z
1[
b1001011000 d
b0 f
b11100 g
b101000 h
b0 i
b0 j
b0 k
1n
1o
b101000 p
1q
b0 r
b0 s
b1 t
#610000
05
0[
0o
0q
#615000
1!
1"
1#
b0 $
1%
b1 &
0'
0+
10
15
b0 7
18
b0 9
b101000 :
b0 ;
1=
b11100 ?
b11110100001000000010 K
1L
b0 M
1N
b1 O
0X
b0 Z
1[
b0 ]
b101 ^
1`
1a
0b
0c
b1001011000 d
b0 f
b11100 g
b101000 h
b0 i
b0 j
b0 k
1m
1n
1o
b101000 p
1q
b0 r
#620000
05
0[
0o
0q
#625000
00
15
b1111 <
1=
b101000 ?
bx @
b11110100001000000001 K
0X
0Y
b1111 Z
1[
b1 ^
b0 _
b1001011000 d
b1 e
b0 f
b101000 g
b101000 h
b1 i
b1 j
b1 k
0l
0n
1o
b101000 p
1q
b11100 r
#630000
05
0[
0o
0q
#635000
0"
0%
1'
1+
15
b0 7
18
b0 9
b100100 :
b0 <
b0 ?
b1 @
b11110100001000000000 K
0N
0X
0Y
b0 Z
1[
b1 _
0`
1b
0c
b1001011000 d
b10 e
b0 f
b0 g
b100100 h
b10 i
b1 j
b1 k
0l
0n
1o
b101000 p
1q
b101000 r
b0 u
b1 v
b1 w
#640000
05
0[
0o
0q
#645000
1(
1)
b0 *
b1 ,
15
18
b100000 :
b11111111111111111111111111110110 ;
b100 ?
bx @
b11110100000111111111 K
1Q
b0 R
b1 S
0X
0Y
b0 Z
1[
b0 ]
b0 _
1c
b1001011000 d
b11 e
b0 f
b100 g
b100000 h
b11 i
b1 j
b1 k
0l
0n
1o
b100100 p
1q
b0 r
#650000
05
0[
0o
0q
#655000
15
b11100 :
b11111111111111111111111111110111 ;
b1000 ?
bx @
b11110100000111111110 K
b1 S
0X
0Y
b0 Z
1[
b0 _
b1001011000 d
b100 e
b0 f
b1000 g
b11100 h
b100 i
b1 j
b1 k
0l
0n
1o
b100000 p
1q
b100 r
#660000
05
0[
0o
0q
#665000
15
b11000 :
b10111 ;
b1100 ?
bx @
b11110100000111111101 K
b1 S
0X
0Y
b0 Z
1[
b0 _
b1001011000 d
b101 e
b0 f
b1100 g
b11000 h
b101 i
b1 j
b1 k
0l
0n
1o
b11100 p
1q
b1000 r
#670000
05
0[
0o
0q
#675000
15
b10100 :
b111000 ;
b10000 ?
bx @
b11110100000111111100 K
b1 S
0X
0Y
b0 Z
1[
b0 _
b1001011000 d
b110 e
b0 f
b10000 g
b10100 h
b110 i
b1 j
b1 k
0l
0n
1o
b11000 p
1q
b1100 r
#680000
05
0[
0o
0q
#685000
15
b10000 :
b111111 ;
b10100 ?
bx @
b11110100000111111011 K
b1 S
0X
0Y
b0 Z
1[
b0 _
b1001011000 d
b111 e
b0 f
b10100 g
b10000 h
b111 i
b1 j
b1 k
0l
0n
1o
b10100 p
1q
b10000 r
#690000
05
0[
0o
0q
#695000
15
b1100 :
b111000 ;
b11000 ?
bx @
b11110100000111111010 K
b1 S
0X
0Y
b0 Z
1[
b0 _
b1001011000 d
b1000 e
b0 f
b11000 g
b1100 h
b1000 i
b1 j
b1 k
0l
0n
1o
b10000 p
1q
b10100 r
#700000
05
0[
0o
0q
#705000
15
b1000 :
b10111 ;
b11100 ?
bx @
b11110100000111111001 K
b1 S
0X
0Y
b0 Z
1[
b0 _
b1001011000 d
b1001 e
b0 f
b11100 g
b1000 h
b1001 i
b1 j
b1 k
0l
0n
1o
b1100 p
1q
b11000 r
#710000
05
0[
0o
0q
#715000
15
b100 :
b11111111111111111111111111110111 ;
b100000 ?
bx @
b11110100000111111000 K
b1 S
0X
0Y
b0 Z
1[
b0 _
b1001011000 d
b1010 e
b0 f
b100000 g
b100 h
b1010 i
b1 j
b1 k
0l
0n
1o
b1000 p
1q
b11100 r
#720000
05
0[
0o
0q
#725000
15
b0 :
b11111111111111111111111111110110 ;
b100100 ?
bx @
b11110100000111110111 K
b1 S
0X
0Y
b0 Z
1[
b0 _
b1001011000 d
b1011 e
b0 f
b100100 g
b0 h
b1011 i
b1 j
b1 k
0l
0n
1o
b100 p
1q
b100000 r
#730000
05
0[
0o
0q
#735000
10
11
12
b0 3
15
b101000 :
b0 ;
1=
b101000 ?
bx @
b0 I
b11110100000111110110 K
b1 S
1X
0Y
b0 Z
1[
b0 _
b1001011000 d
b1100 e
b0 f
b101000 g
b101000 h
b0 i
b1 j
b1 k
0l
0n
1o
b0 p
1q
b100100 r
b0 y
b0 z
#740000
05
0[
0o
0q
#745000
1-
b10 .
00
02
b0 3
15
b0 ;
b1111 <
1=
b10 >
b100100 ?
b1 @
b1 H
b11110100000111110101 K
b10 U
0X
0Y
b1111 Z
1[
b0 _
b1001011000 d
b1101 e
b0 f
b100100 g
b101000 h
b1 i
b10 j
b10 k
0l
0n
1o
b101000 p
1q
b101000 r
b10 x
#750000
05
0[
0o
0q
#755000
11
15
b100100 :
b0 <
b101000 ?
b10 @
b1 I
b11110100000111110100 K
0X
0Y
b0 Z
1[
b10 _
b1001011000 d
b1110 e
b0 f
b101000 g
b100100 h
b10 i
b10 j
b10 k
0l
0n
1o
b101000 p
1q
b100100 r
b11111111111111111111111111110110 y
b1 z
#760000
05
0[
0o
0q
#765000
15
b100000 :
b11111111111111111111111111110110 ;
b0 ?
b1 @
b11110100000111110011 K
b1 S
0X
0Y
b0 Z
1[
b1 _
b1001011000 d
b1111 e
b0 f
b0 g
b100000 h
b11 i
b10 j
b10 k
0l
0n
1o
b100100 p
1q
b101000 r
#770000
05
0[
0o
0q
#775000
b0 3
15
b11100 :
b11111111111111111111111111110111 ;
b100 ?
bx @
b11110100000111110010 K
b1 S
0X
0Y
b0 Z
1[
b0 _
b1001011000 d
b10000 e
b11111111111111111111111111110110 f
b100 g
b11100 h
b100 i
b10 j
b10 k
0l
0n
1o
b100000 p
1q
b0 r
#780000
05
0[
0o
0q
#785000
15
b11000 :
b10111 ;
b1000 ?
bx @
b11110100000111110001 K
b1 S
0X
0Y
b0 Z
1[
b0 _
b1001011000 d
b10001 e
b11111111111111111111111111110110 f
b1000 g
b11000 h
b101 i
b10 j
b10 k
0l
0n
1o
b11100 p
1q
b100 r
#790000
05
0[
0o
0q
#795000
15
b10100 :
b111000 ;
b1100 ?
bx @
b11110100000111110000 K
b1 S
0X
0Y
b0 Z
1[
b0 _
b1001011000 d
b10010 e
b11111111111111111111111111110110 f
b1100 g
b10100 h
b110 i
b10 j
b10 k
0l
0n
1o
b11000 p
1q
b1000 r
#800000
05
0[
0o
0q
