112061619_lab3/lab-fir/fir/fir.vcd
$date
   Wed Oct 11 06:27:14 2023
$end
$version
  2022.1
$end
$timescale
  1ps
$end
$scope module fir_tb $end
$var wire 1 ! awready $end
$var wire 1 " wready $end
$var reg 1 # awvalid $end
$var reg 12 $ awaddr [11:0] $end
$var reg 1 % wvalid $end
$var reg 32 & wdata [31:0] $end
$var wire 1 ' arready $end
$var reg 1 ( rready $end
$var reg 1 ) arvalid $end
$var reg 12 * araddr [11:0] $end
$var wire 1 + rvalid $end
$var wire 32 , rdata [31:0] $end
$var reg 1 - ss_tvalid $end
$var reg 32 . ss_tdata [31:0] $end
$var reg 1 / ss_tlast $end
$var wire 1 0 ss_tready $end
$var reg 1 1 sm_tready $end
$var wire 1 2 sm_tvalid $end
$var wire 32 3 sm_tdata [31:0] $end
$var wire 1 4 sm_tlast $end
$var reg 1 5 axis_clk $end
$var reg 1 6 axis_rst_n $end
$var wire 4 7 tap_WE [3:0] $end
$var wire 1 8 tap_EN $end
$var wire 32 9 tap_Di [31:0] $end
$var wire 12 : tap_A [11:0] $end
$var wire 32 ; tap_Do [31:0] $end
$var wire 4 < data_WE [3:0] $end
$var wire 1 = data_EN $end
$var wire 32 > data_Di [31:0] $end
$var wire 12 ? data_A [11:0] $end
$var wire 32 @ data_Do [31:0] $end
$var reg 1 A error_coef $end
$var reg 32 B data_length [31:0] $end
$var integer 32 C Din [31:0] $end
$var integer 32 D golden [31:0] $end
$var integer 32 E input_data [31:0] $end
$var integer 32 F golden_data [31:0] $end
$var integer 32 G m [31:0] $end
$var integer 32 H i [31:0] $end
$var integer 32 I k [31:0] $end
$var reg 1 J error $end
$var integer 32 K timeout [31:0] $end
$scope module fir_DUT $end
$var wire 1 ! awready $end
$var wire 1 " wready $end
$var wire 1 L awvalid $end
$var wire 12 M awaddr [11:0] $end
$var wire 1 N wvalid $end
$var wire 32 O wdata [31:0] $end
$var wire 1 ' arready $end
$var wire 1 P rready $end
$var wire 1 Q arvalid $end
$var wire 12 R araddr [11:0] $end
$var wire 1 + rvalid $end
$var reg 32 S rdata [31:0] $end
$var wire 1 T ss_tvalid $end
$var wire 32 U ss_tdata [31:0] $end
$var wire 1 V ss_tlast $end
$var wire 1 0 ss_tready $end
$var wire 1 W sm_tready $end
$var reg 1 X sm_tvalid $end
$var wire 32 3 sm_tdata [31:0] $end
$var wire 1 4 sm_tlast $end
$var wire 4 7 tap_WE [3:0] $end
$var wire 1 8 tap_EN $end
$var wire 32 9 tap_Di [31:0] $end
$var wire 12 : tap_A [11:0] $end
$var wire 32 ; tap_Do [31:0] $end
$var reg 4 Y data_WE [3:0] $end
$var wire 1 = data_EN $end
$var wire 32 > data_Di [31:0] $end
$var wire 12 ? data_A [11:0] $end
$var wire 32 @ data_Do [31:0] $end
$var wire 1 Z axis_clk $end
$var wire 1 [ axis_rst_n $end
$var wire 12 \ addr [11:0] $end
$var wire 32 ] ap_ctrl [31:0] $end
$var wire 32 ^ mul [31:0] $end
$var wire 1 _ wen $end
$var wire 1 ` awen $end
$var wire 1 a ren $end
$var wire 1 b aren $end
$var reg 32 c data_length [31:0] $end
$var reg 32 d cnt [31:0] $end
$var reg 32 e temp [31:0] $end
$var reg 12 f mul_cnt [11:0] $end
$var reg 12 g i_cnt [11:0] $end
$var reg 12 h sm_cnt [11:0] $end
$var reg 12 i offset [11:0] $end
$var reg 12 j j_cnt [11:0] $end
$var reg 1 k ap_done $end
$var wire 1 l ap_start $end
$var reg 1 m ap_idle $end
$upscope $end
$scope module tap_RAM $end
$var wire 1 n CLK $end
$var wire 4 7 WE [3:0] $end
$var wire 1 8 EN $end
$var wire 32 9 Di [31:0] $end
$var wire 32 ; Do [31:0] $end
$var wire 12 : A [11:0] $end
$var reg 12 o r_A [11:0] $end
$upscope $end
$scope module data_RAM $end
$var wire 1 p CLK $end
$var wire 4 < WE [3:0] $end
$var wire 1 = EN $end
$var wire 32 > Di [31:0] $end
$var wire 32 @ Do [31:0] $end
$var wire 12 ? A [11:0] $end
$var reg 12 q r_A [11:0] $end
$upscope $end
$scope task config_write $end
$var reg 12 r addr [11:0] $end
$var reg 32 s data [31:0] $end
$upscope $end
$scope task config_read_check $end
$var reg 12 t addr [11:0] $end
$var reg 32 u exp_data [31:0] $end
$var reg 32 v mask [31:0] $end
$upscope $end
$scope task ss $end
$var reg 32 w in1 [31:0] $end
$upscope $end
$scope task sm $end
$var reg 32 x in2 [31:0] $end
$var reg 32 y pcnt [31:0] $end
$upscope $end
$upscope $end
$enddefinitions $end
#0
$dumpvars
x!
x"
x#
bx $
x%
bx &
x'
x(
x)
bx *
x+
bx ,
0-
bx .
x/
x0
11
x2
bx 3
z4
05
06
bx 7
x8
bx 9
bx :
bx ;
bx <
x=
bx >
bx ?
bx @
0A
b1001011000 B
b11111111111111111011000111100000 C
b11111111111111111011000111100001 D
b1 E
b1 F
b1001011000 G
bx H
bx I
0J
b11110100001001000000 K
xL
bx M
xN
bx O
xP
xQ
bx R
bx S
0T
bx U
xV
1W
xX
bx Y
0Z
0[
bx \
b0xxx ]
bx ^
x_
x`
xa
xb
bx c
bx d
bx e
bx f
bx g
bx h
bx i
bx j
xk
xl
xm
0n
bx o
0p
bx q
bx r
bx s
bx t
bx u
bx v
bx w
bx x
bx y
$end
#5000
0)
b0 *
1-
b1 .
0/
x0
02
bx 3
15
x8
bx :
b0 <
1=
b1 >
b0 ?
bx @
b0 H
b11110100001000111111 K
0Q
b0 R
1T
b1 U
0V
0X
b0 Y
1Z
bx \
b10x ]
bx ^
0b
bx c
b0 d
bx e
b0 f
b101000 g
bx h
b0 i
b0 j
0k
1m
1n
bx o
1p
bx q
b1 w
#10000
05
0Z
0n
0p
#15000
bx 3
15
16
b0x00 ?
bx @
b11110100001000111110 K
0X
b0 Y
1Z
1[
bx c
b0 e
b100 f
b101000 g
bx h
b0 i
b0 j
1m
1n
bx o
1p
b0 q
b10000 r
b1001011000 s
#20000
05
0Z
0n
0p
#25000
1!
1"
1#
b10000 $
1%
b1001011000 &
0'
0+
00
15
b0 7
08
bx 9
bx :
b0 ;
1=
b0 ?
bx @
b11110100001000111101 K
1L
b10000 M
1N
b1001011000 O
0X
b0 Y
1Z
b10000 \
b100 ]
1_
1`
0a
0b
bx c
b0 e
b1000 f
b101000 g
bx h
b0 i
b0 j
0l
1m
1n
bx o
1p
b0x00 q
#30000
05
0Z
0n
0p
#35000
15
b0 ?
bx @
b0 I
b11110100001000111100 K
0X
b0 Y
1Z
b0 ^
b1001011000 c
b0 e
b11100 f
b101000 g
b0 h
b0 i
b0 j
1m
1n
bx o
1p
b0 q
b100000 r
b0 s
#40000
05
0Z
0n
0p
#45000
1#
b100000 $
1%
b0 &
15
b1111 7
18
b0 9
b0 :
bx ;
b11110100001000111011 K
b100000 M
b0 O
0X
b0 Y
1Z
b100000 \
b1001011000 c
b0 e
b11100 f
b101000 g
b0 h
b0 i
b0 j
0l
1m
1n
bx o
1p
b0 q
#50000
05
0Z
0n
0p
#55000
15
b0 ;
b1 I
b11110100001000111010 K
0X
b0 Y
1Z
b1001011000 c
b0 e
b11100 f
b101000 g
b0 h
b0 i
b0 j
1m
1n
b0 o
1p
b0 q
b100100 r
b11111111111111111111111111110110 s
#60000
05
0Z
0n
0p
#65000
1#
b100100 $
1%
b11111111111111111111111111110110 &
15
b1111 7
18
b11111111111111111111111111110110 9
b100 :
b11110100001000111001 K
b100100 M
b11111111111111111111111111110110 O
0X
b0 Y
1Z
b100100 \
b1001011000 c
b0 e
b11100 f
b101000 g
b0 h
b0 i
b0 j
0l
1m
1n
b0 o
1p
b0 q
#70000
05
0Z
0n
0p
#75000
15
b11111111111111111111111111110110 ;
b10 I
b11110100001000111000 K
0X
b0 Y
1Z
b1001011000 c
b0 e
b11100 f
b101000 g
b0 h
b0 i
b0 j
1m
1n
b100 o
1p
b0 q
b101000 r
b11111111111111111111111111110111 s
#80000
05
0Z
0n
0p
#85000
1#
b101000 $
1%
b11111111111111111111111111110111 &
15
b1111 7
18
b11111111111111111111111111110111 9
b1000 :
b11110100001000110111 K
b101000 M
b11111111111111111111111111110111 O
0X
b0 Y
1Z
b101000 \
b1001011000 c
b0 e
b11100 f
b101000 g
b0 h
b0 i
b0 j
0l
1m
1n
b100 o
1p
b0 q
#90000
05
0Z
0n
0p
#95000
15
b11111111111111111111111111110111 ;
b11 I
b11110100001000110110 K
0X
b0 Y
1Z
b1001011000 c
b0 e
b11100 f
b101000 g
b0 h
b0 i
b0 j
1m
1n
b1000 o
1p
b0 q
b101100 r
b10111 s
#100000
05
0Z
0n
0p
#105000
1#
b101100 $
1%
b10111 &
15
b1111 7
18
b10111 9
b1100 :
b11110100001000110101 K
b101100 M
b10111 O
0X
b0 Y
1Z
b101100 \
b1001011000 c
b0 e
b11100 f
b101000 g
b0 h
b0 i
b0 j
0l
1m
1n
b1000 o
1p
b0 q
#110000
05
0Z
0n
0p
#115000
15
b10111 ;
b100 I
b11110100001000110100 K
0X
b0 Y
1Z
b1001011000 c
b0 e
b11100 f
b101000 g
b0 h
b0 i
b0 j
1m
1n
b1100 o
1p
b0 q
b110000 r
b111000 s
#120000
05
0Z
0n
0p
#125000
1#
b110000 $
1%
b111000 &
15
b1111 7
18
b111000 9
b10000 :
b11110100001000110011 K
b110000 M
b111000 O
0X
b0 Y
1Z
b110000 \
b1001011000 c
b0 e
b11100 f
b101000 g
b0 h
b0 i
b0 j
0l
1m
1n
b1100 o
1p
b0 q
#130000
05
0Z
0n
0p
#135000
15
b111000 ;
b101 I
b11110100001000110010 K
0X
b0 Y
1Z
b1001011000 c
b0 e
b11100 f
b101000 g
b0 h
b0 i
b0 j
1m
1n
b10000 o
1p
b0 q
b110100 r
b111111 s
#140000
05
0Z
0n
0p
#145000
1#
b110100 $
1%
b111111 &
15
b1111 7
18
b111111 9
b10100 :
b11110100001000110001 K
b110100 M
b111111 O
0X
b0 Y
1Z
b110100 \
b1001011000 c
b0 e
b11100 f
b101000 g
b0 h
b0 i
b0 j
0l
1m
1n
b10000 o
1p
b0 q
#150000
05
0Z
0n
0p
#155000
15
b111111 ;
b110 I
b11110100001000110000 K
0X
b0 Y
1Z
b1001011000 c
b0 e
b11100 f
b101000 g
b0 h
b0 i
b0 j
1m
1n
b10100 o
1p
b0 q
b111000 r
b111000 s
#160000
05
0Z
0n
0p
#165000
1#
b111000 $
1%
b111000 &
15
b1111 7
18
b111000 9
b11000 :
b11110100001000101111 K
b111000 M
b111000 O
0X
b0 Y
1Z
b111000 \
b1001011000 c
b0 e
b11100 f
b101000 g
b0 h
b0 i
b0 j
0l
1m
1n
b10100 o
1p
b0 q
#170000
05
0Z
0n
0p
#175000
15
b111000 ;
b111 I
b11110100001000101110 K
0X
b0 Y
1Z
b1001011000 c
b0 e
b11100 f
b101000 g
b0 h
b0 i
b0 j
1m
1n
b11000 o
1p
b0 q
b111100 r
b10111 s
#180000
05
0Z
0n
0p
#185000
1#
b111100 $
1%
b10111 &
15
b1111 7
18
b10111 9
b11100 :
b11110100001000101101 K
b111100 M
b10111 O
0X
b0 Y
1Z
b111100 \
b1001011000 c
b0 e
b11100 f
b101000 g
b0 h
b0 i
b0 j
0l
1m
1n
b11000 o
1p
b0 q
#190000
05
0Z
0n
0p
#195000
15
b10111 ;
b1000 I
b11110100001000101100 K
0X
b0 Y
1Z
b1001011000 c
b0 e
b11100 f
b101000 g
b0 h
b0 i
b0 j
1m
1n
b11100 o
1p
b0 q
b1000000 r
b11111111111111111111111111110111 s
#200000
05
0Z
0n
0p
#205000
1#
b1000000 $
1%
b11111111111111111111111111110111 &
15
b1111 7
18
b11111111111111111111111111110111 9
b100000 :
b11110100001000101011 K
b1000000 M
b11111111111111111111111111110111 O
0X
b0 Y
1Z
b1000000 \
b1001011000 c
b0 e
b11100 f
b101000 g
b0 h
b0 i
b0 j
0l
1m
1n
b11100 o
1p
b0 q
#210000
05
0Z
0n
0p
#215000
15
b11111111111111111111111111110111 ;
b1001 I
b11110100001000101010 K
0X
b0 Y
1Z
b1001011000 c
b0 e
b11100 f
b101000 g
b0 h
b0 i
b0 j
1m
1n
b100000 o
1p
b0 q
b1000100 r
b11111111111111111111111111110110 s
#220000
05
0Z
0n
0p
#225000
1#
b1000100 $
1%
b11111111111111111111111111110110 &
15
b1111 7
18
b11111111111111111111111111110110 9
b100100 :
b11110100001000101001 K
b1000100 M
b11111111111111111111111111110110 O
0X
b0 Y
1Z
b1000100 \
b1001011000 c
b0 e
b11100 f
b101000 g
b0 h
b0 i
b0 j
0l
1m
1n
b100000 o
1p
b0 q
#230000
05
0Z
0n
0p
#235000
15
b11111111111111111111111111110110 ;
b1010 I
b11110100001000101000 K
0X
b0 Y
1Z
b1001011000 c
b0 e
b11100 f
b101000 g
b0 h
b0 i
b0 j
1m
1n
b100100 o
1p
b0 q
b1001000 r
b0 s
#240000
05
0Z
0n
0p
#245000
1#
b1001000 $
1%
b0 &
15
b1111 7
18
b0 9
b101000 :
b11110100001000100111 K
b1001000 M
b0 O
0X
b0 Y
1Z
b1001000 \
b1001011000 c
b0 e
b11100 f
b101000 g
b0 h
b0 i
b0 j
0l
1m
1n
b100100 o
1p
b0 q
#250000
05
0Z
0n
0p
#255000
15
b0 ;
b1011 I
b11110100001000100110 K
0X
b0 Y
1Z
b1001011000 c
b0 e
b11100 f
b101000 g
b0 h
b0 i
b0 j
1m
1n
b101000 o
1p
b0 q
#260000
05
0Z
0n
0p
#265000
0!
0"
0#
0%
1'
0)
1+
15
b0 7
08
b0 9
b101000 :
b0 ;
b0 I
b11110100001000100101 K
0L
0N
0X
b0 Y
1Z
b1001000 \
0_
0`
xa
0b
b1001011000 c
b0 e
b11100 f
b101000 g
b0 h
b0 i
b0 j
0l
1m
1n
b101000 o
1p
b0 q
b100000 t
b0 u
b11111111111111111111111111111111 v
#270000
05
0Z
0n
0p
#275000
1(
1)
b100000 *
b0 ,
15
18
b0 :
b0 ;
b11110100001000100100 K
1P
1Q
b100000 R
b0 S
0X
b0 Y
1Z
b100000 \
1a
1b
b1001011000 c
b0 e
b11100 f
b101000 g
b0 h
b0 i
b0 j
1m
1n
b101000 o
1p
b0 q
#280000
05
0Z
0n
0p
#285000
15
b0 ;
b11110100001000100011 K
0X
b0 Y
1Z
b1001011000 c
b0 e
b11100 f
b101000 g
b0 h
b0 i
b0 j
1m
1n
b0 o
1p
b0 q
#290000
05
0Z
0n
0p
#295000
15
b1 I
b11110100001000100010 K
0X
b0 Y
1Z
b1001011000 c
b0 e
b11100 f
b101000 g
b0 h
b0 i
b0 j
1m
1n
b0 o
1p
b0 q
b100100 t
b11111111111111111111111111110110 u
b11111111111111111111111111111111 v
#300000
05
0Z
0n
0p
#305000
1(
1)
b100100 *
15
18
b100 :
b11110100001000100001 K
b100100 R
b0 S
0X
b0 Y
1Z
b100100 \
b1001011000 c
b0 e
b11100 f
b101000 g
b0 h
b0 i
b0 j
1m
1n
b0 o
1p
b0 q
#310000
05
0Z
0n
0p
#315000
b11111111111111111111111111110110 ,
15
b11111111111111111111111111110110 ;
b11110100001000100000 K
b11111111111111111111111111110110 S
0X
b0 Y
1Z
b1001011000 c
b0 e
b11100 f
b101000 g
b0 h
b0 i
b0 j
1m
1n
b100 o
1p
b0 q
#320000
05
0Z
0n
0p
#325000
15
b10 I
b11110100001000011111 K
0X
b0 Y
1Z
b1001011000 c
b0 e
b11100 f
b101000 g
b0 h
b0 i
b0 j
1m
1n
b100 o
1p
b0 q
b101000 t
b11111111111111111111111111110111 u
b11111111111111111111111111111111 v
#330000
05
0Z
0n
0p
#335000
1(
1)
b101000 *
15
18
b1000 :
b11110100001000011110 K
b101000 R
b11111111111111111111111111110110 S
0X
b0 Y
1Z
b101000 \
b1001011000 c
b0 e
b11100 f
b101000 g
b0 h
b0 i
b0 j
1m
1n
b100 o
1p
b0 q
#340000
05
0Z
0n
0p
#345000
b11111111111111111111111111110111 ,
15
b11111111111111111111111111110111 ;
b11110100001000011101 K
b11111111111111111111111111110111 S
0X
b0 Y
1Z
b1001011000 c
b0 e
b11100 f
b101000 g
b0 h
b0 i
b0 j
1m
1n
b1000 o
1p
b0 q
#350000
05
0Z
0n
0p
#355000
15
b11 I
b11110100001000011100 K
0X
b0 Y
1Z
b1001011000 c
b0 e
b11100 f
b101000 g
b0 h
b0 i
b0 j
1m
1n
b1000 o
1p
b0 q
b101100 t
b10111 u
b11111111111111111111111111111111 v
#360000
05
0Z
0n
0p
#365000
1(
1)
b101100 *
15
18
b1100 :
b11110100001000011011 K
b101100 R
b11111111111111111111111111110111 S
0X
b0 Y
1Z
b101100 \
b1001011000 c
b0 e
b11100 f
b101000 g
b0 h
b0 i
b0 j
1m
1n
b1000 o
1p
b0 q
#370000
05
0Z
0n
0p
#375000
b10111 ,
15
b10111 ;
b11110100001000011010 K
b10111 S
0X
b0 Y
1Z
b1001011000 c
b0 e
b11100 f
b101000 g
b0 h
b0 i
b0 j
1m
1n
b1100 o
1p
b0 q
#380000
05
0Z
0n
0p
#385000
15
b100 I
b11110100001000011001 K
0X
b0 Y
1Z
b1001011000 c
b0 e
b11100 f
b101000 g
b0 h
b0 i
b0 j
1m
1n
b1100 o
1p
b0 q
b110000 t
b111000 u
b11111111111111111111111111111111 v
#390000
05
0Z
0n
0p
#395000
1(
1)
b110000 *
15
18
b10000 :
b11110100001000011000 K
b110000 R
b10111 S
0X
b0 Y
1Z
b110000 \
b1001011000 c
b0 e
b11100 f
b101000 g
b0 h
b0 i
b0 j
1m
1n
b1100 o
1p
b0 q
#400000
05
0Z
0n
0p
#405000
b111000 ,
15
b111000 ;
b11110100001000010111 K
b111000 S
0X
b0 Y
1Z
b1001011000 c
b0 e
b11100 f
b101000 g
b0 h
b0 i
b0 j
1m
1n
b10000 o
1p
b0 q
#410000
05
0Z
0n
0p
#415000
15
b101 I
b11110100001000010110 K
0X
b0 Y
1Z
b1001011000 c
b0 e
b11100 f
b101000 g
b0 h
b0 i
b0 j
1m
1n
b10000 o
1p
b0 q
b110100 t
b111111 u
b11111111111111111111111111111111 v
#420000
05
0Z
0n
0p
#425000
1(
1)
b110100 *
15
18
b10100 :
b11110100001000010101 K
b110100 R
b111000 S
0X
b0 Y
1Z
b110100 \
b1001011000 c
b0 e
b11100 f
b101000 g
b0 h
b0 i
b0 j
1m
1n
b10000 o
1p
b0 q
#430000
05
0Z
0n
0p
#435000
b111111 ,
15
b111111 ;
b11110100001000010100 K
b111111 S
0X
b0 Y
1Z
b1001011000 c
b0 e
b11100 f
b101000 g
b0 h
b0 i
b0 j
1m
1n
b10100 o
1p
b0 q
#440000
05
0Z
0n
0p
#445000
15
b110 I
b11110100001000010011 K
0X
b0 Y
1Z
b1001011000 c
b0 e
b11100 f
b101000 g
b0 h
b0 i
b0 j
1m
1n
b10100 o
1p
b0 q
b111000 t
b111000 u
b11111111111111111111111111111111 v
#450000
05
0Z
0n
0p
#455000
1(
1)
b111000 *
15
18
b11000 :
b11110100001000010010 K
b111000 R
b111111 S
0X
b0 Y
1Z
b111000 \
b1001011000 c
b0 e
b11100 f
b101000 g
b0 h
b0 i
b0 j
1m
1n
b10100 o
1p
b0 q
#460000
05
0Z
0n
0p
#465000
b111000 ,
15
b111000 ;
b11110100001000010001 K
b111000 S
0X
b0 Y
1Z
b1001011000 c
b0 e
b11100 f
b101000 g
b0 h
b0 i
b0 j
1m
1n
b11000 o
1p
b0 q
#470000
05
0Z
0n
0p
#475000
15
b111 I
b11110100001000010000 K
0X
b0 Y
1Z
b1001011000 c
b0 e
b11100 f
b101000 g
b0 h
b0 i
b0 j
1m
1n
b11000 o
1p
b0 q
b111100 t
b10111 u
b11111111111111111111111111111111 v
#480000
05
0Z
0n
0p
#485000
1(
1)
b111100 *
15
18
b11100 :
b11110100001000001111 K
b111100 R
b111000 S
0X
b0 Y
1Z
b111100 \
b1001011000 c
b0 e
b11100 f
b101000 g
b0 h
b0 i
b0 j
1m
1n
b11000 o
1p
b0 q
#490000
05
0Z
0n
0p
#495000
b10111 ,
15
b10111 ;
b11110100001000001110 K
b10111 S
0X
b0 Y
1Z
b1001011000 c
b0 e
b11100 f
b101000 g
b0 h
b0 i
b0 j
1m
1n
b11100 o
1p
b0 q
#500000
05
0Z
0n
0p
#505000
15
b1000 I
b11110100001000001101 K
0X
b0 Y
1Z
b1001011000 c
b0 e
b11100 f
b101000 g
b0 h
b0 i
b0 j
1m
1n
b11100 o
1p
b0 q
b1000000 t
b11111111111111111111111111110111 u
b11111111111111111111111111111111 v
#510000
05
0Z
0n
0p
#515000
1(
1)
b1000000 *
15
18
b100000 :
b11110100001000001100 K
b1000000 R
b10111 S
0X
b0 Y
1Z
b1000000 \
b1001011000 c
b0 e
b11100 f
b101000 g
b0 h
b0 i
b0 j
1m
1n
b11100 o
1p
b0 q
#520000
05
0Z
0n
0p
#525000
b11111111111111111111111111110111 ,
15
b11111111111111111111111111110111 ;
b11110100001000001011 K
b11111111111111111111111111110111 S
0X
b0 Y
1Z
b1001011000 c
b0 e
b11100 f
b101000 g
b0 h
b0 i
b0 j
1m
1n
b100000 o
1p
b0 q
#530000
05
0Z
0n
0p
#535000
15
b1001 I
b11110100001000001010 K
0X
b0 Y
1Z
b1001011000 c
b0 e
b11100 f
b101000 g
b0 h
b0 i
b0 j
1m
1n
b100000 o
1p
b0 q
b1000100 t
b11111111111111111111111111110110 u
b11111111111111111111111111111111 v
#540000
05
0Z
0n
0p
#545000
1(
1)
b1000100 *
15
18
b100100 :
b11110100001000001001 K
b1000100 R
b11111111111111111111111111110111 S
0X
b0 Y
1Z
b1000100 \
b1001011000 c
b0 e
b11100 f
b101000 g
b0 h
b0 i
b0 j
1m
1n
b100000 o
1p
b0 q
#550000
05
0Z
0n
0p
#555000
b11111111111111111111111111110110 ,
15
b11111111111111111111111111110110 ;
b11110100001000001000 K
b11111111111111111111111111110110 S
0X
b0 Y
1Z
b1001011000 c
b0 e
b11100 f
b101000 g
b0 h
b0 i
b0 j
1m
1n
b100100 o
1p
b0 q
#560000
05
0Z
0n
0p
#565000
15
b1010 I
b11110100001000000111 K
0X
b0 Y
1Z
b1001011000 c
b0 e
b11100 f
b101000 g
b0 h
b0 i
b0 j
1m
1n
b100100 o
1p
b0 q
b1001000 t
b0 u
b11111111111111111111111111111111 v
#570000
05
0Z
0n
0p
#575000
1(
1)
b1001000 *
15
18
b101000 :
b11110100001000000110 K
b1001000 R
b11111111111111111111111111110110 S
0X
b0 Y
1Z
b1001000 \
b1001011000 c
b0 e
b11100 f
b101000 g
b0 h
b0 i
b0 j
1m
1n
b100100 o
1p
b0 q
#580000
05
0Z
0n
0p
#585000
b0 ,
15
b0 ;
b11110100001000000101 K
b0 S
0X
b0 Y
1Z
b1001011000 c
b0 e
b11100 f
b101000 g
b0 h
b0 i
b0 j
1m
1n
b101000 o
1p
b0 q
#590000
05
0Z
0n
0p
#595000
0)
15
08
b101000 :
b0 ;
b1011 I
b11110100001000000100 K
0Q
0X
b0 Y
1Z
b1001000 \
0b
b1001011000 c
b0 e
b11100 f
b101000 g
b0 h
b0 i
b0 j
1m
1n
b101000 o
1p
b0 q
#600000
05
0Z
0n
0p
#605000
15
b11110100001000000011 K
0X
b0 Y
1Z
b1001011000 c
b0 e
b11100 f
b101000 g
b0 h
b0 i
b0 j
1m
1n
b101000 o
1p
b0 q
b0 r
b1 s
#610000
05
0Z
0n
0p
#615000
1!
1"
1#
b0 $
1%
b1 &
0'
0+
10
15
b0 7
18
b0 9
b101000 :
b0 ;
1=
b11100 ?
b11110100001000000010 K
1L
b0 M
1N
b1 O
0X
b0 Y
1Z
b0 \
b101 ]
1_
1`
0a
0b
b1001011000 c
b0 e
b11100 f
b101000 g
b0 h
b0 i
b0 j
1l
1m
1n
b101000 o
1p
b0 q
#620000
05
0Z
0n
0p
#625000
00
15
b1111 <
1=
b101000 ?
bx @
b11110100001000000001 K
0X
b1111 Y
1Z
b1 ]
b0 ^
b1001011000 c
b1 d
b0 e
b101000 f
b101000 g
b1 h
b1 i
b1 j
0k
0m
1n
b101000 o
1p
b11100 q
#630000
05
0Z
0n
0p
#635000
0"
0%
1'
1+
15
b0 7
18
b0 9
b100100 :
b0 <
b0 ?
b1 @
b11110100001000000000 K
0N
0X
b0 Y
1Z
b1 ^
0_
1a
0b
b1001011000 c
b10 d
b0 e
b0 f
b100100 g
b10 h
b1 i
b1 j
0k
0m
1n
b101000 o
1p
b101000 q
b0 t
b1 u
b1 v
#640000
05
0Z
0n
0p
#645000
1(
1)
b0 *
b1 ,
15
18
b100000 :
b11111111111111111111111111110110 ;
b100 ?
bx @
b11110100000111111111 K
1Q
b0 R
b1 S
0X
b0 Y
1Z
b0 \
b0 ^
1b
b1001011000 c
b11 d
b0 e
b100 f
b100000 g
b11 h
b1 i
b1 j
0k
0m
1n
b100100 o
1p
b0 q
#650000
05
0Z
0n
0p
#655000
15
b11100 :
b11111111111111111111111111110111 ;
b1000 ?
bx @
b11110100000111111110 K
b1 S
0X
b0 Y
1Z
b0 ^
b1001011000 c
b100 d
b0 e
b1000 f
b11100 g
b100 h
b1 i
b1 j
0k
0m
1n
b100000 o
1p
b100 q
#660000
05
0Z
0n
0p
#665000
15
b11000 :
b10111 ;
b1100 ?
bx @
b11110100000111111101 K
b1 S
0X
b0 Y
1Z
b0 ^
b1001011000 c
b101 d
b0 e
b1100 f
b11000 g
b101 h
b1 i
b1 j
0k
0m
1n
b11100 o
1p
b1000 q
#670000
05
0Z
0n
0p
#675000
15
b10100 :
b111000 ;
b10000 ?
bx @
b11110100000111111100 K
b1 S
0X
b0 Y
1Z
b0 ^
b1001011000 c
b110 d
b0 e
b10000 f
b10100 g
b110 h
b1 i
b1 j
0k
0m
1n
b11000 o
1p
b1100 q
#680000
05
0Z
0n
0p
#685000
15
b10000 :
b111111 ;
b10100 ?
bx @
b11110100000111111011 K
b1 S
0X
b0 Y
1Z
b0 ^
b1001011000 c
b111 d
b0 e
b10100 f
b10000 g
b111 h
b1 i
b1 j
0k
0m
1n
b10100 o
1p
b10000 q
#690000
05
0Z
0n
0p
#695000
15
b1100 :
b111000 ;
b11000 ?
bx @
b11110100000111111010 K
b1 S
0X
b0 Y
1Z
b0 ^
b1001011000 c
b1000 d
b0 e
b11000 f
b1100 g
b1000 h
b1 i
b1 j
0k
0m
1n
b10000 o
1p
b10100 q
#700000
05
0Z
0n
0p
#705000
15
b1000 :
b10111 ;
b11100 ?
bx @
b11110100000111111001 K
b1 S
0X
b0 Y
1Z
b0 ^
b1001011000 c
b1001 d
b0 e
b11100 f
b1000 g
b1001 h
b1 i
b1 j
0k
0m
1n
b1100 o
1p
b11000 q
#710000
05
0Z
0n
0p
#715000
15
b100 :
b11111111111111111111111111110111 ;
b100000 ?
bx @
b11110100000111111000 K
b1 S
0X
b0 Y
1Z
b0 ^
b1001011000 c
b1010 d
b0 e
b100000 f
b100 g
b1010 h
b1 i
b1 j
0k
0m
1n
b1000 o
1p
b11100 q
#720000
05
0Z
0n
0p
#725000
15
b0 :
b11111111111111111111111111110110 ;
b100100 ?
bx @
b11110100000111110111 K
b1 S
0X
b0 Y
1Z
b0 ^
b1001011000 c
b1011 d
b0 e
b100100 f
b0 g
b1011 h
b1 i
b1 j
0k
0m
1n
b100 o
1p
b100000 q
#730000
05
0Z
0n
0p
#735000
10
11
12
b0 3
15
b101000 :
b0 ;
1=
b101000 ?
bx @
b0 I
b11110100000111110110 K
b1 S
1X
b0 Y
1Z
b0 ^
b1001011000 c
b1100 d
b0 e
b101000 f
b101000 g
b0 h
b1 i
b1 j
0k
0m
1n
b0 o
1p
b100100 q
b0 x
b0 y
#740000
05
0Z
0n
0p
#745000
1-
b10 .
00
02
b0 3
15
b0 ;
b1111 <
1=
b10 >
b100100 ?
b1 @
b1 H
b11110100000111110101 K
b10 U
0X
b1111 Y
1Z
b0 ^
b1001011000 c
b1101 d
b0 e
b100100 f
b101000 g
b1 h
b10 i
b10 j
0k
0m
1n
b101000 o
1p
b101000 q
b10 w
#750000
05
0Z
0n
0p
#755000
11
15
b100100 :
b0 <
b101000 ?
b10 @
b1 I
b11110100000111110100 K
0X
b0 Y
1Z
b10 ^
b1001011000 c
b1110 d
b0 e
b101000 f
b100100 g
b10 h
b10 i
b10 j
0k
0m
1n
b101000 o
1p
b100100 q
b11111111111111111111111111110110 x
b1 y
#760000
05
0Z
0n
0p
#765000
15
b100000 :
b11111111111111111111111111110110 ;
b0 ?
b1 @
b11110100000111110011 K
b1 S
0X
b0 Y
1Z
b1 ^
b1001011000 c
b1111 d
b0 e
b0 f
b100000 g
b11 h
b10 i
b10 j
0k
0m
1n
b100100 o
1p
b101000 q
#770000
05
0Z
0n
0p
#775000
b0 3
15
b11100 :
b11111111111111111111111111110111 ;
b100 ?
bx @
b11110100000111110010 K
b1 S
0X
b0 Y
1Z
b0 ^
b1001011000 c
b10000 d
b11111111111111111111111111110110 e
b100 f
b11100 g
b100 h
b10 i
b10 j
0k
0m
1n
b100000 o
1p
b0 q
#780000
05
0Z
0n
0p
#785000
15
b11000 :
b10111 ;
b1000 ?
bx @
b11110100000111110001 K
b1 S
0X
b0 Y
1Z
b0 ^
b1001011000 c
b10001 d
b11111111111111111111111111110110 e
b1000 f
b11000 g
b101 h
b10 i
b10 j
0k
0m
1n
b11100 o
1p
b100 q
#790000
05
0Z
0n
0p
#795000
15
b10100 :
b111000 ;
b1100 ?
bx @
b11110100000111110000 K
b1 S
0X
b0 Y
1Z
b0 ^
b1001011000 c
b10010 d
b11111111111111111111111111110110 e
b1100 f
b10100 g
b110 h
b10 i
b10 j
0k
0m
1n
b11000 o
1p
b1000 q
#800000
05
0Z
0n
0p
